{
  "metadata": {
    "version": 31,
    "www_path_prefix": "https://www.crunchbase.com",
    "api_path_prefix": "https://api.crunchbase.com",
    "image_path_prefix": "http://public.crunchbase.com/t_api_images/"
  },
  "data": {
    "paging": {
      "total_items": 416,
      "number_of_pages": 417,
      "current_page": 1,
      "sort_order": "created_at DESC",
      "items_per_page": 1,
      "next_page_url": "https://api.crunchbase.com/v3.1/organizations?page=2&sort_order=created_at%20DESC&items_per_page=1&locations=vermont",
      "prev_page_url": null,
      "key_set_url": "https://api.crunchbase.com/v3.1/organizations?prev_at=1542700813&prev_uuid=87eacafc6e2d4785b2ab7fb595d5e30b&sort_order=created_at%20DESC&items_per_page=1&locations=vermont",
      "collection_url": "https://api.crunchbase.com/v3.1/organizations",
      "updated_since": null
    },
    "items": [
      {
        "type": "OrganizationSummary",
        "uuid": "87eacafc6e2d4785b2ab7fb595d5e30b",
        "properties": {
          "permalink": "datamann",
          "api_path": "organizations/datamann",
          "web_path": "organization/datamann",
          "api_url": "https://api.crunchbase.com/v3.1/organizations/datamann",
          "name": "Datamann",
          "stock_exchange": null,
          "stock_symbol": null,
          "primary_role": "company",
          "short_description": "Datamann is a leading provider of order and transaction processing systems.",
          "profile_image_url": "http://public.crunchbase.com/t_api_images/bdweaxcgdqypfpd7c01p",
          "domain": "datamann.com/",
          "homepage_url": "https://www.datamann.com/",
          "facebook_url": null,
          "twitter_url": "https://twitter.com/datamann",
          "linkedin_url": "https://www.linkedin.com/company/datamann-inc-/",
          "city_name": "Wilder",
          "region_name": "Vermont",
          "country_code": "United States",
          "created_at": 1542700813,
          "updated_at": 1542701130
        }
      }
    ]
  }
}

